%YAML 1.1
%TAG !u! tag:unity3d.com,2011:
--- !u!78 &1
TagManager:
  serializedVersion: 2
  tags:
  - Player1
  - Player2
  - Item
  - Player1Car
  - Player2Car
  - ItemSpawner
  layers:
  - Default
  - TransparentFX
  - Ignore Raycast
  - 
  - Water
  - UI
  - 
  - 
  - Player
  - AI
  - Item
  - PlayerCollision
  - 
  - 
  - 
  - 
  - 
  - 
  - 
  - 
  - 
  - 
  - 
  - 
  - 
  - 
  - 
  - 
  - 
  - 
  - 
  - PostProcessing
  m_SortingLayers:
  - name: Default
    uniqueID: 0
    locked: 0
