%YAML 1.1
%TAG !u! tag:unity3d.com,2011:
--- !u!64 &814014681
MeshCollider:
  m_ObjectHideFlags: 0
  m_CorrespondingSourceObject: {fileID: 0}
  m_PrefabInstance: {fileID: 0}
  m_PrefabAsset: {fileID: 0}
  m_GameObject: {fileID: 8446142699244805244}
  m_Material: {fileID: 0}
  m_IsTrigger: 0
  m_Enabled: 1
  serializedVersion: 3
  m_Convex: 0
  m_CookingOptions: 14
  m_Mesh: {fileID: 0}
--- !u!1001 &8446142699244837596
PrefabInstance:
  m_ObjectHideFlags: 0
  serializedVersion: 2
  m_Modification:
    m_TransformParent: {fileID: 0}
    m_Modifications:
    - target: {fileID: 100000, guid: 5238331d9af53b144b61cb2e420201a2, type: 3}
      propertyPath: m_Name
      value: _houseWalls Variant
      objectReference: {fileID: 0}
    - target: {fileID: 100000, guid: 5238331d9af53b144b61cb2e420201a2, type: 3}
      propertyPath: m_Layer
      value: 11
      objectReference: {fileID: 0}
    - target: {fileID: 100002, guid: 5238331d9af53b144b61cb2e420201a2, type: 3}
      propertyPath: m_Layer
      value: 11
      objectReference: {fileID: 0}
    - target: {fileID: 100014, guid: 5238331d9af53b144b61cb2e420201a2, type: 3}
      propertyPath: m_Layer
      value: 11
      objectReference: {fileID: 0}
    - target: {fileID: 100022, guid: 5238331d9af53b144b61cb2e420201a2, type: 3}
      propertyPath: m_Layer
      value: 11
      objectReference: {fileID: 0}
    - target: {fileID: 100024, guid: 5238331d9af53b144b61cb2e420201a2, type: 3}
      propertyPath: m_Layer
      value: 11
      objectReference: {fileID: 0}
    - target: {fileID: 100026, guid: 5238331d9af53b144b61cb2e420201a2, type: 3}
      propertyPath: m_Layer
      value: 11
      objectReference: {fileID: 0}
    - target: {fileID: 100028, guid: 5238331d9af53b144b61cb2e420201a2, type: 3}
      propertyPath: m_Layer
      value: 11
      objectReference: {fileID: 0}
    - target: {fileID: 100030, guid: 5238331d9af53b144b61cb2e420201a2, type: 3}
      propertyPath: m_Layer
      value: 11
      objectReference: {fileID: 0}
    - target: {fileID: 100032, guid: 5238331d9af53b144b61cb2e420201a2, type: 3}
      propertyPath: m_Layer
      value: 11
      objectReference: {fileID: 0}
    - target: {fileID: 100034, guid: 5238331d9af53b144b61cb2e420201a2, type: 3}
      propertyPath: m_Layer
      value: 11
      objectReference: {fileID: 0}
    - target: {fileID: 100036, guid: 5238331d9af53b144b61cb2e420201a2, type: 3}
      propertyPath: m_Layer
      value: 11
      objectReference: {fileID: 0}
    - target: {fileID: 100038, guid: 5238331d9af53b144b61cb2e420201a2, type: 3}
      propertyPath: m_Layer
      value: 11
      objectReference: {fileID: 0}
    - target: {fileID: 100040, guid: 5238331d9af53b144b61cb2e420201a2, type: 3}
      propertyPath: m_Layer
      value: 11
      objectReference: {fileID: 0}
    - target: {fileID: 100004, guid: 5238331d9af53b144b61cb2e420201a2, type: 3}
      propertyPath: m_Layer
      value: 11
      objectReference: {fileID: 0}
    - target: {fileID: 100006, guid: 5238331d9af53b144b61cb2e420201a2, type: 3}
      propertyPath: m_Layer
      value: 11
      objectReference: {fileID: 0}
    - target: {fileID: 100008, guid: 5238331d9af53b144b61cb2e420201a2, type: 3}
      propertyPath: m_Layer
      value: 11
      objectReference: {fileID: 0}
    - target: {fileID: 100010, guid: 5238331d9af53b144b61cb2e420201a2, type: 3}
      propertyPath: m_Layer
      value: 11
      objectReference: {fileID: 0}
    - target: {fileID: 100012, guid: 5238331d9af53b144b61cb2e420201a2, type: 3}
      propertyPath: m_Layer
      value: 11
      objectReference: {fileID: 0}
    - target: {fileID: 100016, guid: 5238331d9af53b144b61cb2e420201a2, type: 3}
      propertyPath: m_Layer
      value: 11
      objectReference: {fileID: 0}
    - target: {fileID: 100018, guid: 5238331d9af53b144b61cb2e420201a2, type: 3}
      propertyPath: m_Layer
      value: 11
      objectReference: {fileID: 0}
    - target: {fileID: 100020, guid: 5238331d9af53b144b61cb2e420201a2, type: 3}
      propertyPath: m_Layer
      value: 11
      objectReference: {fileID: 0}
    - target: {fileID: 400000, guid: 5238331d9af53b144b61cb2e420201a2, type: 3}
      propertyPath: m_LocalPosition.x
      value: 0
      objectReference: {fileID: 0}
    - target: {fileID: 400000, guid: 5238331d9af53b144b61cb2e420201a2, type: 3}
      propertyPath: m_LocalPosition.y
      value: 0
      objectReference: {fileID: 0}
    - target: {fileID: 400000, guid: 5238331d9af53b144b61cb2e420201a2, type: 3}
      propertyPath: m_LocalPosition.z
      value: 0
      objectReference: {fileID: 0}
    - target: {fileID: 400000, guid: 5238331d9af53b144b61cb2e420201a2, type: 3}
      propertyPath: m_LocalRotation.x
      value: -0
      objectReference: {fileID: 0}
    - target: {fileID: 400000, guid: 5238331d9af53b144b61cb2e420201a2, type: 3}
      propertyPath: m_LocalRotation.y
      value: -0
      objectReference: {fileID: 0}
    - target: {fileID: 400000, guid: 5238331d9af53b144b61cb2e420201a2, type: 3}
      propertyPath: m_LocalRotation.z
      value: -0
      objectReference: {fileID: 0}
    - target: {fileID: 400000, guid: 5238331d9af53b144b61cb2e420201a2, type: 3}
      propertyPath: m_LocalRotation.w
      value: 1
      objectReference: {fileID: 0}
    - target: {fileID: 400000, guid: 5238331d9af53b144b61cb2e420201a2, type: 3}
      propertyPath: m_RootOrder
      value: 0
      objectReference: {fileID: 0}
    - target: {fileID: 400000, guid: 5238331d9af53b144b61cb2e420201a2, type: 3}
      propertyPath: m_LocalEulerAnglesHint.x
      value: 0
      objectReference: {fileID: 0}
    - target: {fileID: 400000, guid: 5238331d9af53b144b61cb2e420201a2, type: 3}
      propertyPath: m_LocalEulerAnglesHint.y
      value: 0
      objectReference: {fileID: 0}
    - target: {fileID: 400000, guid: 5238331d9af53b144b61cb2e420201a2, type: 3}
      propertyPath: m_LocalEulerAnglesHint.z
      value: 0
      objectReference: {fileID: 0}
    - target: {fileID: 400002, guid: 5238331d9af53b144b61cb2e420201a2, type: 3}
      propertyPath: m_LocalPosition.y
      value: 0.35
      objectReference: {fileID: 0}
    - target: {fileID: 2300004, guid: 5238331d9af53b144b61cb2e420201a2, type: 3}
      propertyPath: m_Materials.Array.data[0]
      value: 
      objectReference: {fileID: 2100000, guid: 953f829a7f10ac64ca98f2e34ef7e357, type: 2}
    - target: {fileID: 2300006, guid: 5238331d9af53b144b61cb2e420201a2, type: 3}
      propertyPath: m_Materials.Array.data[0]
      value: 
      objectReference: {fileID: 2100000, guid: 73f1eba2483297e4ea2fa11382652bfe, type: 2}
    - target: {fileID: 2300010, guid: 5238331d9af53b144b61cb2e420201a2, type: 3}
      propertyPath: m_Materials.Array.data[0]
      value: 
      objectReference: {fileID: 2100000, guid: b51b61f8bf7c4f146a099a269f6845a8, type: 2}
    - target: {fileID: 2300018, guid: 5238331d9af53b144b61cb2e420201a2, type: 3}
      propertyPath: m_Materials.Array.data[0]
      value: 
      objectReference: {fileID: 2100000, guid: 73f1eba2483297e4ea2fa11382652bfe, type: 2}
    - target: {fileID: 2300022, guid: 5238331d9af53b144b61cb2e420201a2, type: 3}
      propertyPath: m_Materials.Array.data[0]
      value: 
      objectReference: {fileID: 2100000, guid: 8f40ae674a6de284da577be2edfbc7c1, type: 2}
    - target: {fileID: 2300024, guid: 5238331d9af53b144b61cb2e420201a2, type: 3}
      propertyPath: m_Materials.Array.data[0]
      value: 
      objectReference: {fileID: 2100000, guid: c352979f3f5482440b4231d2ca1a95a0, type: 2}
    - target: {fileID: 2300030, guid: 5238331d9af53b144b61cb2e420201a2, type: 3}
      propertyPath: m_Materials.Array.data[0]
      value: 
      objectReference: {fileID: 2100000, guid: b51b61f8bf7c4f146a099a269f6845a8, type: 2}
    - target: {fileID: 2300032, guid: 5238331d9af53b144b61cb2e420201a2, type: 3}
      propertyPath: m_Materials.Array.data[0]
      value: 
      objectReference: {fileID: 2100000, guid: 8f40ae674a6de284da577be2edfbc7c1, type: 2}
    - target: {fileID: 2300038, guid: 5238331d9af53b144b61cb2e420201a2, type: 3}
      propertyPath: m_Materials.Array.data[0]
      value: 
      objectReference: {fileID: 2100000, guid: 953f829a7f10ac64ca98f2e34ef7e357, type: 2}
    m_RemovedComponents: []
  m_SourcePrefab: {fileID: 100100000, guid: 5238331d9af53b144b61cb2e420201a2, type: 3}
--- !u!1 &8446142699244805244 stripped
GameObject:
  m_CorrespondingSourceObject: {fileID: 100000, guid: 5238331d9af53b144b61cb2e420201a2,
    type: 3}
  m_PrefabInstance: {fileID: 8446142699244837596}
  m_PrefabAsset: {fileID: 0}
